Library\Bee\artifacts\mvdfrm\UnityEngine.UI.ref.dll_FAE6DBEA21006BE5.mvfrm
Library\Bee\artifacts\mvdfrm\UnityEngine.AccessibilityModule.dll_6994D19B455D66AA.mvfrm
Library\Bee\artifacts\mvdfrm\UnityEngine.AIModule.dll_5AC2A214E838E9B0.mvfrm
Library\Bee\artifacts\mvdfrm\UnityEngine.AndroidJNIModule.dll_DA2CAD5A075C876E.mvfrm
Library\Bee\artifacts\mvdfrm\UnityEngine.AnimationModule.dll_7D3A085C14318AD0.mvfrm
Library\Bee\artifacts\mvdfrm\UnityEngine.ARModule.dll_1435671845564879.mvfrm
Library\Bee\artifacts\mvdfrm\UnityEngine.AssetBundleModule.dll_E9B07CCB54E81BFE.mvfrm
Library\Bee\artifacts\mvdfrm\UnityEngine.AudioModule.dll_8DCDC8F09453B7C2.mvfrm
Library\Bee\artifacts\mvdfrm\UnityEngine.ClothModule.dll_F4B625EB6E7096A6.mvfrm
Library\Bee\artifacts\mvdfrm\UnityEngine.ClusterInputModule.dll_101183DA36504E58.mvfrm
Library\Bee\artifacts\mvdfrm\UnityEngine.ClusterRendererModule.dll_0C034E8F3A9BB729.mvfrm
Library\Bee\artifacts\mvdfrm\UnityEngine.CoreModule.dll_CC66E6C952D5CA07.mvfrm
Library\Bee\artifacts\mvdfrm\UnityEngine.CrashReportingModule.dll_D79820343A8167FF.mvfrm
Library\Bee\artifacts\mvdfrm\UnityEngine.DirectorModule.dll_F88F94425120E1E4.mvfrm
Library\Bee\artifacts\mvdfrm\UnityEngine.dll_27EC4D5DF23B20DE.mvfrm
Library\Bee\artifacts\mvdfrm\UnityEngine.DSPGraphModule.dll_FDE0F5ABC381B305.mvfrm
Library\Bee\artifacts\mvdfrm\UnityEngine.GameCenterModule.dll_0479F774CD9D785F.mvfrm
Library\Bee\artifacts\mvdfrm\UnityEngine.GIModule.dll_F2FEEB2283E7D1CA.mvfrm
Library\Bee\artifacts\mvdfrm\UnityEngine.GridModule.dll_A9D802B76B2A5FFE.mvfrm
Library\Bee\artifacts\mvdfrm\UnityEngine.HotReloadModule.dll_FE82C661EF64A652.mvfrm
Library\Bee\artifacts\mvdfrm\UnityEngine.ImageConversionModule.dll_77F54C3FBCC06F1D.mvfrm
Library\Bee\artifacts\mvdfrm\UnityEngine.IMGUIModule.dll_C62D68575A854BA3.mvfrm
Library\Bee\artifacts\mvdfrm\UnityEngine.InputLegacyModule.dll_7AF597E9ECD9D1EF.mvfrm
Library\Bee\artifacts\mvdfrm\UnityEngine.InputModule.dll_F44390A10A8BDC66.mvfrm
Library\Bee\artifacts\mvdfrm\UnityEngine.JSONSerializeModule.dll_C9AC5AD74498C734.mvfrm
Library\Bee\artifacts\mvdfrm\UnityEngine.LocalizationModule.dll_4E5E4E2CCDCC4151.mvfrm
Library\Bee\artifacts\mvdfrm\UnityEngine.ParticleSystemModule.dll_2AAA6980A892F38D.mvfrm
Library\Bee\artifacts\mvdfrm\UnityEngine.PerformanceReportingModule.dll_D715881BA69B25C6.mvfrm
Library\Bee\artifacts\mvdfrm\UnityEngine.Physics2DModule.dll_C9DFF84CB52E8265.mvfrm
Library\Bee\artifacts\mvdfrm\UnityEngine.PhysicsModule.dll_4251C3E05616CED3.mvfrm
Library\Bee\artifacts\mvdfrm\UnityEngine.ProfilerModule.dll_2AD5CD78EA7A68F1.mvfrm
Library\Bee\artifacts\mvdfrm\UnityEngine.RuntimeInitializeOnLoadManagerInitializerModule.dll_05763708B62C3D2E.mvfrm
Library\Bee\artifacts\mvdfrm\UnityEngine.ScreenCaptureModule.dll_E394085C5904F396.mvfrm
Library\Bee\artifacts\mvdfrm\UnityEngine.SharedInternalsModule.dll_FC068B1533EE6A6D.mvfrm
Library\Bee\artifacts\mvdfrm\UnityEngine.SpriteMaskModule.dll_EDA66A04EF0D0DD9.mvfrm
Library\Bee\artifacts\mvdfrm\UnityEngine.SpriteShapeModule.dll_0311AA260A8A5408.mvfrm
Library\Bee\artifacts\mvdfrm\UnityEngine.StreamingModule.dll_31CEF5AC63B9420E.mvfrm
Library\Bee\artifacts\mvdfrm\UnityEngine.SubstanceModule.dll_0E7A09F5AF0C401C.mvfrm
Library\Bee\artifacts\mvdfrm\UnityEngine.SubsystemsModule.dll_5853D066BD54F5EC.mvfrm
Library\Bee\artifacts\mvdfrm\UnityEngine.TerrainModule.dll_5C983F4F2BD517C1.mvfrm
Library\Bee\artifacts\mvdfrm\UnityEngine.TerrainPhysicsModule.dll_2B251253C1D5EE1A.mvfrm
Library\Bee\artifacts\mvdfrm\UnityEngine.TextCoreFontEngineModule.dll_27656AFDEA3187A5.mvfrm
Library\Bee\artifacts\mvdfrm\UnityEngine.TextCoreTextEngineModule.dll_6F4DA16F79B540C3.mvfrm
Library\Bee\artifacts\mvdfrm\UnityEngine.TextRenderingModule.dll_0CD37A67103C738B.mvfrm
Library\Bee\artifacts\mvdfrm\UnityEngine.TilemapModule.dll_FB94A6D04391F8CA.mvfrm
Library\Bee\artifacts\mvdfrm\UnityEngine.TLSModule.dll_5250015C8B50B2E7.mvfrm
Library\Bee\artifacts\mvdfrm\UnityEngine.UIElementsModule.dll_5C9231CEC08131E3.mvfrm
Library\Bee\artifacts\mvdfrm\UnityEngine.UIElementsNativeModule.dll_0156E2E422E7C15A.mvfrm
Library\Bee\artifacts\mvdfrm\UnityEngine.UIModule.dll_56364042447FEF5C.mvfrm
Library\Bee\artifacts\mvdfrm\UnityEngine.UmbraModule.dll_08A27509217A6335.mvfrm
Library\Bee\artifacts\mvdfrm\UnityEngine.UNETModule.dll_5F0D2EB29FE4BF80.mvfrm
Library\Bee\artifacts\mvdfrm\UnityEngine.UnityAnalyticsCommonModule.dll_7254455FC083C424.mvfrm
Library\Bee\artifacts\mvdfrm\UnityEngine.UnityAnalyticsModule.dll_4A49DA4A54BA4589.mvfrm
Library\Bee\artifacts\mvdfrm\UnityEngine.UnityConnectModule.dll_7DD492D37F507C3D.mvfrm
Library\Bee\artifacts\mvdfrm\UnityEngine.UnityCurlModule.dll_B056A98D84457CBD.mvfrm
Library\Bee\artifacts\mvdfrm\UnityEngine.UnityTestProtocolModule.dll_5034389DCDB2EFAB.mvfrm
Library\Bee\artifacts\mvdfrm\UnityEngine.UnityWebRequestAssetBundleModule.dll_ADCD13CEC539E71A.mvfrm
Library\Bee\artifacts\mvdfrm\UnityEngine.UnityWebRequestAudioModule.dll_4F11DBFA2D05F05E.mvfrm
Library\Bee\artifacts\mvdfrm\UnityEngine.UnityWebRequestModule.dll_899453E9C7B5099C.mvfrm
Library\Bee\artifacts\mvdfrm\UnityEngine.UnityWebRequestTextureModule.dll_E0E5FB5BA4E15DF3.mvfrm
Library\Bee\artifacts\mvdfrm\UnityEngine.UnityWebRequestWWWModule.dll_3A0FE6CB6974FD2F.mvfrm
Library\Bee\artifacts\mvdfrm\UnityEngine.VehiclesModule.dll_70528DC1CB4AB17F.mvfrm
Library\Bee\artifacts\mvdfrm\UnityEngine.VFXModule.dll_D32E99CB61BE1C54.mvfrm
Library\Bee\artifacts\mvdfrm\UnityEngine.VideoModule.dll_B2D74D5B56E5D367.mvfrm
Library\Bee\artifacts\mvdfrm\UnityEngine.VirtualTexturingModule.dll_25E39752FB9641E5.mvfrm
Library\Bee\artifacts\mvdfrm\UnityEngine.VRModule.dll_A90866C7E63A74D4.mvfrm
Library\Bee\artifacts\mvdfrm\UnityEngine.WindModule.dll_42B5C1F1E40C4870.mvfrm
Library\Bee\artifacts\mvdfrm\UnityEngine.XRModule.dll_DBC729CC6F74C232.mvfrm
Library\Bee\artifacts\mvdfrm\Unity.VisualScripting.Antlr3.Runtime.dll_2547039478BC3B98.mvfrm